<font>
  <info face="Combat" size="68" bold="0" italic="0" charset="" unicode="" stretchH="100" smooth="1" aa="1" padding="0,0,0,0" spacing="0,0" outline="0"/>
  <common lineHeight="86" base="42" scaleW="256" scaleH="256" pages="1" packed="0"/>
  <pages>
    <page id="0" file="combat.png"/>
  </pages>
  <chars count="12">
    <char id="48" x="0" y="0" width="44" height="53" xoffset="2" yoffset="1" xadvance="58" page="0" chnl="15"/>
    <char id="49" x="44" y="0" width="41" height="52" xoffset="1" yoffset="2" xadvance="53" page="0" chnl="15"/>
    <char id="50" x="85" y="0" width="44" height="52" xoffset="2" yoffset="1" xadvance="58" page="0" chnl="15"/>
    <char id="51" x="129" y="0" width="44" height="53" xoffset="1" yoffset="1" xadvance="58" page="0" chnl="15"/>
    <char id="52" x="173" y="0" width="49" height="53" xoffset="2" yoffset="0" xadvance="63" page="0" chnl="15"/>
    <char id="53" x="44" y="52" width="40" height="54" xoffset="1" yoffset="1" xadvance="54" page="0" chnl="15"/>
    <char id="54" x="84" y="52" width="43" height="53" xoffset="2" yoffset="1" xadvance="58" page="0" chnl="15"/>
    <char id="55" x="0" y="53" width="42" height="53" xoffset="2" yoffset="2" xadvance="56" page="0" chnl="15"/>
    <char id="56" x="127" y="53" width="44" height="53" xoffset="2" yoffset="1" xadvance="58" page="0" chnl="15"/>
    <char id="57" x="171" y="53" width="43" height="53" xoffset="2" yoffset="1" xadvance="57" page="0" chnl="15"/>
    <char id="43" x="222" y="0" width="33" height="34" xoffset="2" yoffset="15" xadvance="48" page="0" chnl="15"/>
    <char id="45" x="222" y="34" width="32" height="19" xoffset="2" yoffset="23" xadvance="47" page="0" chnl="15"/>
    <char id="32" x="0" y="0" width="0" height="0" xoffset="2" yoffset="23" xadvance="38" page="0" chnl="15"/>
  </chars>
</font>